^C:\USERS\PASTERZ\DYSK GOOGLE\C++\NEURAL_NETWORK\NEURAL_NETWORK\NEURAL_NETWORK\NETWORK.CPP|C:\USERS\PASTERZ\DYSK GOOGLE\C++\NEURAL_NETWORK\NEURAL_NETWORK\NEURAL_NETWORK\NEURON.CPP|C:\USERS\PASTERZ\DYSK GOOGLE\C++\NEURAL_NETWORK\NEURAL_NETWORK\NEURAL_NETWORK\SOURCE.CPP
C:\USERS\PASTERZ\DYSK GOOGLE\C++\NEURAL_NETWORK\NEURAL_NETWORK\NEURAL_NETWORK\DEBUG\VC140.PDB
C:\USERS\PASTERZ\DYSK GOOGLE\C++\NEURAL_NETWORK\NEURAL_NETWORK\NEURAL_NETWORK\DEBUG\VC140.IDB
C:\USERS\PASTERZ\DYSK GOOGLE\C++\NEURAL_NETWORK\NEURAL_NETWORK\NEURAL_NETWORK\DEBUG\NETWORK.OBJ
C:\USERS\PASTERZ\DYSK GOOGLE\C++\NEURAL_NETWORK\NEURAL_NETWORK\NEURAL_NETWORK\DEBUG\NEURON.OBJ
^C:\USERS\PASTERZ\DYSK GOOGLE\C++\NEURAL_NETWORK\NEURAL_NETWORK\NEURAL_NETWORK\NETWORK.CPP
C:\USERS\PASTERZ\DYSK GOOGLE\C++\NEURAL_NETWORK\NEURAL_NETWORK\NEURAL_NETWORK\DEBUG\VC140.PDB
^C:\USERS\PASTERZ\DYSK GOOGLE\C++\NEURAL_NETWORK\NEURAL_NETWORK\NEURAL_NETWORK\NEURON.CPP
C:\USERS\PASTERZ\DYSK GOOGLE\C++\NEURAL_NETWORK\NEURAL_NETWORK\NEURAL_NETWORK\DEBUG\VC140.PDB
^C:\USERS\PASTERZ\DYSK GOOGLE\C++\NEURAL_NETWORK\NEURAL_NETWORK\NEURAL_NETWORK\SOURCE.CPP
C:\USERS\PASTERZ\DYSK GOOGLE\C++\NEURAL_NETWORK\NEURAL_NETWORK\NEURAL_NETWORK\DEBUG\VC140.PDB
^C:\USERS\PASTERZ\DYSK GOOGLE\C++\NEURAL_NETWORK\NEURAL_NETWORK\NEURAL_NETWORK\NETWORK.CPP|C:\USERS\PASTERZ\DYSK GOOGLE\C++\NEURAL_NETWORK\NEURAL_NETWORK\NEURAL_NETWORK\SOURCE.CPP
C:\USERS\PASTERZ\DYSK GOOGLE\C++\NEURAL_NETWORK\NEURAL_NETWORK\NEURAL_NETWORK\DEBUG\VC140.PDB
C:\USERS\PASTERZ\DYSK GOOGLE\C++\NEURAL_NETWORK\NEURAL_NETWORK\NEURAL_NETWORK\DEBUG\VC140.IDB
C:\USERS\PASTERZ\DYSK GOOGLE\C++\NEURAL_NETWORK\NEURAL_NETWORK\NEURAL_NETWORK\DEBUG\NETWORK.OBJ
